<?xml version="1.0"?>
<robot name="SensorDeContacto"
	  xmlns:sensor="http://playerstage.sourceforge.net/gazebo/xmlschema/#sensor"
	   xmlns:controller="http://playerstage.sourceforge.net/gazebo/xmlschema/#controller"
	   xmlns:interface="http://playerstage.sourceforge.net/gazebo/xmlschema/#interface"
	   xmlns:xacro="http://playerstage.sourceforge.net/gazebo/xmlschema/#interface" >

	<link name="alimentador">
		<inertial>
			<mass value="0.1" />
			<origin xyz="0 0 0" />
			<inertia  ixx="1.0" ixy="0.0"  ixz="0.0"  iyy="1.0"  iyz="0.0"  izz="1.0" />
		</inertial>
		<visual>
			<origin xyz="0 0 0" rpy="0 0 0" />
			<geometry>
				<box size="0.1 0.1 0.01" />
			</geometry>
		</visual>
		<collision>
			<origin xyz="0 0 0" rpy="0 0 0" />
			<geometry>
				<box size="0.1 0.1 0.01" />
			</geometry>
		</collision>
	</link>

	<gazebo reference="alimentador">
		<sensor type="contact" name="alimentador">
			<!--update_rate>100.0</update_rate-->
			<update_rate>0.5</update_rate>
			<always_on>1</always_on>
			<contact>
				<collision>alimentador_collision</collision>
			</contact>
			<plugin name="Controller" filename="libgazebo_ros_bumper.so">
				<bumperTopicName>alimentador7</bumperTopicName>
				<frameName>gazebo</frameName>
			</plugin>
		</sensor>
		<material value="Gazebo/Blue" />
	</gazebo>
